{"LArMonParams.LAr.LDPB.LArC_EMBA_1.PulseRates/RatesLatomes[0]": "LATOME_EMBA_1", 
 "LArMonParams.LAr.LDPB.LArC_EMBA_1.PulseRates/RatesLatomes[1]": "LATOME_EMBA_2", 
 "LArMonParams.LAr.LDPB.LArC_EMBA_1.PulseRates/RatesLatomes[2]": "LATOME_EMBA_3", 
 "LArMonParams.LAr.LDPB.LArC_EMBA_1.PulseRates/RatesLatomes[3]": "LATOME_EMBA_4", 
 "LArMonParams.LAr.LDPB.LArC_EMBA_2.PulseRates/RatesLatomes[0]": "LATOME_EMBA_5", 
 "LArMonParams.LAr.LDPB.LArC_EMBA_2.PulseRates/RatesLatomes[1]": "LATOME_EMBA_6", 
 "LArMonParams.LAr.LDPB.LArC_EMBA_2.PulseRates/RatesLatomes[2]": "LATOME_EMBA_7", 
 "LArMonParams.LAr.LDPB.LArC_EMBA_2.PulseRates/RatesLatomes[3]": "LATOME_EMBA_8", 
 "LArMonParams.LAr.LDPB.LArC_EMBA_3.PulseRates/RatesLatomes[0]": "LATOME_EMBA_9", 
 "LArMonParams.LAr.LDPB.LArC_EMBA_3.PulseRates/RatesLatomes[1]": "LATOME_EMBA_10", 
 "LArMonParams.LAr.LDPB.LArC_EMBA_3.PulseRates/RatesLatomes[2]": "LATOME_EMBA_11", 
 "LArMonParams.LAr.LDPB.LArC_EMBA_3.PulseRates/RatesLatomes[3]": "LATOME_EMBA_12", 
 "LArMonParams.LAr.LDPB.LArC_EMBA_4.PulseRates/RatesLatomes[0]": "LATOME_EMBA_13", 
 "LArMonParams.LAr.LDPB.LArC_EMBA_4.PulseRates/RatesLatomes[1]": "LATOME_EMBA_14", 
 "LArMonParams.LAr.LDPB.LArC_EMBA_4.PulseRates/RatesLatomes[2]": "LATOME_EMBA_15", 
 "LArMonParams.LAr.LDPB.LArC_EMBA_4.PulseRates/RatesLatomes[3]": "LATOME_EMBA_16", 
 "LArMonParams.LAr.LDPB.LArC_EMBA_EMECA_1.PulseRates/RatesLatomes[0]": "LATOME_EMBA_EMECA_1", 
 "LArMonParams.LAr.LDPB.LArC_EMBA_EMECA_1.PulseRates/RatesLatomes[1]": "LATOME_EMBA_EMECA_2", 
 "LArMonParams.LAr.LDPB.LArC_EMBA_EMECA_1.PulseRates/RatesLatomes[2]": "LATOME_EMBA_EMECA_3", 
 "LArMonParams.LAr.LDPB.LArC_EMBA_EMECA_1.PulseRates/RatesLatomes[3]": "LATOME_EMBA_EMECA_4", 
 "LArMonParams.LAr.LDPB.LArC_EMBA_EMECA_2.PulseRates/RatesLatomes[0]": "LATOME_EMBA_EMECA_5", 
 "LArMonParams.LAr.LDPB.LArC_EMBA_EMECA_2.PulseRates/RatesLatomes[1]": "LATOME_EMBA_EMECA_6", 
 "LArMonParams.LAr.LDPB.LArC_EMBA_EMECA_2.PulseRates/RatesLatomes[2]": "LATOME_EMBA_EMECA_7", 
 "LArMonParams.LAr.LDPB.LArC_EMBA_EMECA_2.PulseRates/RatesLatomes[3]": "LATOME_EMBA_EMECA_8", 
 "LArMonParams.LAr.LDPB.LArC_EMBA_EMECA_3.PulseRates/RatesLatomes[0]": "LATOME_EMBA_EMECA_9", 
 "LArMonParams.LAr.LDPB.LArC_EMBA_EMECA_3.PulseRates/RatesLatomes[1]": "LATOME_EMBA_EMECA_10", 
 "LArMonParams.LAr.LDPB.LArC_EMBA_EMECA_3.PulseRates/RatesLatomes[2]": "LATOME_EMBA_EMECA_11", 
 "LArMonParams.LAr.LDPB.LArC_EMBA_EMECA_3.PulseRates/RatesLatomes[3]": "LATOME_EMBA_EMECA_12", 
 "LArMonParams.LAr.LDPB.LArC_EMBA_EMECA_4.PulseRates/RatesLatomes[0]": "LATOME_EMBA_EMECA_13", 
 "LArMonParams.LAr.LDPB.LArC_EMBA_EMECA_4.PulseRates/RatesLatomes[1]": "LATOME_EMBA_EMECA_14", 
 "LArMonParams.LAr.LDPB.LArC_EMBA_EMECA_4.PulseRates/RatesLatomes[2]": "LATOME_EMBA_EMECA_15", 
 "LArMonParams.LAr.LDPB.LArC_EMBA_EMECA_4.PulseRates/RatesLatomes[3]": "LATOME_EMBA_EMECA_16", 
 "LArMonParams.LAr.LDPB.LArC_EMBC_1.PulseRates/RatesLatomes[0]": "LATOME_EMBC_1", 
 "LArMonParams.LAr.LDPB.LArC_EMBC_1.PulseRates/RatesLatomes[1]": "LATOME_EMBC_2", 
 "LArMonParams.LAr.LDPB.LArC_EMBC_1.PulseRates/RatesLatomes[2]": "LATOME_EMBC_3", 
 "LArMonParams.LAr.LDPB.LArC_EMBC_1.PulseRates/RatesLatomes[3]": "LATOME_EMBC_4", 
 "LArMonParams.LAr.LDPB.LArC_EMBC_2.PulseRates/RatesLatomes[0]": "LATOME_EMBC_5", 
 "LArMonParams.LAr.LDPB.LArC_EMBC_2.PulseRates/RatesLatomes[1]": "LATOME_EMBC_6", 
 "LArMonParams.LAr.LDPB.LArC_EMBC_2.PulseRates/RatesLatomes[2]": "LATOME_EMBC_7", 
 "LArMonParams.LAr.LDPB.LArC_EMBC_2.PulseRates/RatesLatomes[3]": "LATOME_EMBC_8", 
 "LArMonParams.LAr.LDPB.LArC_EMBC_3.PulseRates/RatesLatomes[0]": "LATOME_EMBC_9", 
 "LArMonParams.LAr.LDPB.LArC_EMBC_3.PulseRates/RatesLatomes[1]": "LATOME_EMBC_10", 
 "LArMonParams.LAr.LDPB.LArC_EMBC_3.PulseRates/RatesLatomes[2]": "LATOME_EMBC_11", 
 "LArMonParams.LAr.LDPB.LArC_EMBC_3.PulseRates/RatesLatomes[3]": "LATOME_EMBC_12", 
 "LArMonParams.LAr.LDPB.LArC_EMBC_4.PulseRates/RatesLatomes[0]": "LATOME_EMBC_13", 
 "LArMonParams.LAr.LDPB.LArC_EMBC_4.PulseRates/RatesLatomes[1]": "LATOME_EMBC_14", 
 "LArMonParams.LAr.LDPB.LArC_EMBC_4.PulseRates/RatesLatomes[2]": "LATOME_EMBC_15", 
 "LArMonParams.LAr.LDPB.LArC_EMBC_4.PulseRates/RatesLatomes[3]": "LATOME_EMBC_16", 
 "LArMonParams.LAr.LDPB.LArC_EMBC_EMECC_1.PulseRates/RatesLatomes[0]": "LATOME_EMBC_EMECC_1", 
 "LArMonParams.LAr.LDPB.LArC_EMBC_EMECC_1.PulseRates/RatesLatomes[1]": "LATOME_EMBC_EMECC_2", 
 "LArMonParams.LAr.LDPB.LArC_EMBC_EMECC_1.PulseRates/RatesLatomes[2]": "LATOME_EMBC_EMECC_3", 
 "LArMonParams.LAr.LDPB.LArC_EMBC_EMECC_1.PulseRates/RatesLatomes[3]": "LATOME_EMBC_EMECC_4", 
 "LArMonParams.LAr.LDPB.LArC_EMBC_EMECC_2.PulseRates/RatesLatomes[0]": "LATOME_EMBC_EMECC_5", 
 "LArMonParams.LAr.LDPB.LArC_EMBC_EMECC_2.PulseRates/RatesLatomes[1]": "LATOME_EMBC_EMECC_6", 
 "LArMonParams.LAr.LDPB.LArC_EMBC_EMECC_2.PulseRates/RatesLatomes[2]": "LATOME_EMBC_EMECC_7", 
 "LArMonParams.LAr.LDPB.LArC_EMBC_EMECC_2.PulseRates/RatesLatomes[3]": "LATOME_EMBC_EMECC_8", 
 "LArMonParams.LAr.LDPB.LArC_EMBC_EMECC_3.PulseRates/RatesLatomes[0]": "LATOME_EMBC_EMECC_9", 
 "LArMonParams.LAr.LDPB.LArC_EMBC_EMECC_3.PulseRates/RatesLatomes[1]": "LATOME_EMBC_EMECC_10", 
 "LArMonParams.LAr.LDPB.LArC_EMBC_EMECC_3.PulseRates/RatesLatomes[2]": "LATOME_EMBC_EMECC_11", 
 "LArMonParams.LAr.LDPB.LArC_EMBC_EMECC_3.PulseRates/RatesLatomes[3]": "LATOME_EMBC_EMECC_12", 
 "LArMonParams.LAr.LDPB.LArC_EMBC_EMECC_4.PulseRates/RatesLatomes[0]": "LATOME_EMBC_EMECC_13", 
 "LArMonParams.LAr.LDPB.LArC_EMBC_EMECC_4.PulseRates/RatesLatomes[1]": "LATOME_EMBC_EMECC_14", 
 "LArMonParams.LAr.LDPB.LArC_EMBC_EMECC_4.PulseRates/RatesLatomes[2]": "LATOME_EMBC_EMECC_15", 
 "LArMonParams.LAr.LDPB.LArC_EMBC_EMECC_4.PulseRates/RatesLatomes[3]": "LATOME_EMBC_EMECC_16", 
 "LArMonParams.LAr.LDPB.LArC_EMECA_1.PulseRates/RatesLatomes[0]": "LATOME_EMECA_1", 
 "LArMonParams.LAr.LDPB.LArC_EMECA_1.PulseRates/RatesLatomes[1]": "LATOME_EMECA_2", 
 "LArMonParams.LAr.LDPB.LArC_EMECA_1.PulseRates/RatesLatomes[2]": "LATOME_EMECA_3", 
 "LArMonParams.LAr.LDPB.LArC_EMECA_1.PulseRates/RatesLatomes[3]": "LATOME_EMECA_4", 
 "LArMonParams.LAr.LDPB.LArC_EMECA_2.PulseRates/RatesLatomes[0]": "LATOME_EMECA_5", 
 "LArMonParams.LAr.LDPB.LArC_EMECA_2.PulseRates/RatesLatomes[1]": "LATOME_EMECA_6", 
 "LArMonParams.LAr.LDPB.LArC_EMECA_2.PulseRates/RatesLatomes[2]": "LATOME_EMECA_7", 
 "LArMonParams.LAr.LDPB.LArC_EMECA_2.PulseRates/RatesLatomes[3]": "LATOME_EMECA_8", 
 "LArMonParams.LAr.LDPB.LArC_EMECA_3.PulseRates/RatesLatomes[0]": "LATOME_EMECA_9", 
 "LArMonParams.LAr.LDPB.LArC_EMECA_3.PulseRates/RatesLatomes[1]": "LATOME_EMECA_10", 
 "LArMonParams.LAr.LDPB.LArC_EMECA_3.PulseRates/RatesLatomes[2]": "LATOME_EMECA_11", 
 "LArMonParams.LAr.LDPB.LArC_EMECA_3.PulseRates/RatesLatomes[3]": "LATOME_EMECA_12", 
 "LArMonParams.LAr.LDPB.LArC_EMECA_4.PulseRates/RatesLatomes[0]": "LATOME_EMECA_13", 
 "LArMonParams.LAr.LDPB.LArC_EMECA_4.PulseRates/RatesLatomes[1]": "LATOME_EMECA_14", 
 "LArMonParams.LAr.LDPB.LArC_EMECA_4.PulseRates/RatesLatomes[2]": "LATOME_EMECA_15", 
 "LArMonParams.LAr.LDPB.LArC_EMECA_4.PulseRates/RatesLatomes[3]": "LATOME_EMECA_16", 
 "LArMonParams.LAr.LDPB.LArC_EMECA_HECA_1.PulseRates/RatesLatomes[0]": "LATOME_EMECA_HECA_1", 
 "LArMonParams.LAr.LDPB.LArC_EMECA_HECA_1.PulseRates/RatesLatomes[1]": "LATOME_EMECA_HECA_2", 
 "LArMonParams.LAr.LDPB.LArC_EMECA_HECA_1.PulseRates/RatesLatomes[2]": "LATOME_EMECA_HECA_3", 
 "LArMonParams.LAr.LDPB.LArC_EMECA_HECA_1.PulseRates/RatesLatomes[3]": "LATOME_EMECA_HECA_4", 
 "LArMonParams.LAr.LDPB.LArC_EMECA_HECA_2.PulseRates/RatesLatomes[0]": "LATOME_EMECA_HECA_5", 
 "LArMonParams.LAr.LDPB.LArC_EMECA_HECA_2.PulseRates/RatesLatomes[1]": "LATOME_EMECA_HECA_6", 
 "LArMonParams.LAr.LDPB.LArC_EMECA_HECA_2.PulseRates/RatesLatomes[2]": "LATOME_EMECA_HECA_7", 
 "LArMonParams.LAr.LDPB.LArC_EMECA_HECA_2.PulseRates/RatesLatomes[3]": "LATOME_EMECA_HECA_8", 
 "LArMonParams.LAr.LDPB.LArC_EMECC_1.PulseRates/RatesLatomes[0]": "LATOME_EMECC_1", 
 "LArMonParams.LAr.LDPB.LArC_EMECC_1.PulseRates/RatesLatomes[1]": "LATOME_EMECC_2", 
 "LArMonParams.LAr.LDPB.LArC_EMECC_1.PulseRates/RatesLatomes[2]": "LATOME_EMECC_3", 
 "LArMonParams.LAr.LDPB.LArC_EMECC_1.PulseRates/RatesLatomes[3]": "LATOME_EMECC_4", 
 "LArMonParams.LAr.LDPB.LArC_EMECC_2.PulseRates/RatesLatomes[0]": "LATOME_EMECC_5", 
 "LArMonParams.LAr.LDPB.LArC_EMECC_2.PulseRates/RatesLatomes[1]": "LATOME_EMECC_6", 
 "LArMonParams.LAr.LDPB.LArC_EMECC_2.PulseRates/RatesLatomes[2]": "LATOME_EMECC_7", 
 "LArMonParams.LAr.LDPB.LArC_EMECC_2.PulseRates/RatesLatomes[3]": "LATOME_EMECC_8", 
 "LArMonParams.LAr.LDPB.LArC_EMECC_3.PulseRates/RatesLatomes[0]": "LATOME_EMECC_9", 
 "LArMonParams.LAr.LDPB.LArC_EMECC_3.PulseRates/RatesLatomes[1]": "LATOME_EMECC_10", 
 "LArMonParams.LAr.LDPB.LArC_EMECC_3.PulseRates/RatesLatomes[2]": "LATOME_EMECC_11", 
 "LArMonParams.LAr.LDPB.LArC_EMECC_3.PulseRates/RatesLatomes[3]": "LATOME_EMECC_12", 
 "LArMonParams.LAr.LDPB.LArC_EMECC_4.PulseRates/RatesLatomes[0]": "LATOME_EMECC_13", 
 "LArMonParams.LAr.LDPB.LArC_EMECC_4.PulseRates/RatesLatomes[1]": "LATOME_EMECC_14", 
 "LArMonParams.LAr.LDPB.LArC_EMECC_4.PulseRates/RatesLatomes[2]": "LATOME_EMECC_15", 
 "LArMonParams.LAr.LDPB.LArC_EMECC_4.PulseRates/RatesLatomes[3]": "LATOME_EMECC_16", 
 "LArMonParams.LAr.LDPB.LArC_EMECC_HECC_1.PulseRates/RatesLatomes[0]": "LATOME_EMECC_HECC_1", 
 "LArMonParams.LAr.LDPB.LArC_EMECC_HECC_1.PulseRates/RatesLatomes[1]": "LATOME_EMECC_HECC_2", 
 "LArMonParams.LAr.LDPB.LArC_EMECC_HECC_1.PulseRates/RatesLatomes[2]": "LATOME_EMECC_HECC_3", 
 "LArMonParams.LAr.LDPB.LArC_EMECC_HECC_1.PulseRates/RatesLatomes[3]": "LATOME_EMECC_HECC_4", 
 "LArMonParams.LAr.LDPB.LArC_EMECC_HECC_2.PulseRates/RatesLatomes[0]": "LATOME_EMECC_HECC_5", 
 "LArMonParams.LAr.LDPB.LArC_EMECC_HECC_2.PulseRates/RatesLatomes[1]": "LATOME_EMECC_HECC_6", 
 "LArMonParams.LAr.LDPB.LArC_EMECC_HECC_2.PulseRates/RatesLatomes[2]": "LATOME_EMECC_HECC_7", 
 "LArMonParams.LAr.LDPB.LArC_EMECC_HECC_2.PulseRates/RatesLatomes[3]": "LATOME_EMECC_HECC_8", 
 "LArMonParams.LAr.LDPB.LArC_FCALA_1.PulseRates/RatesLatomes[0]": "LATOME_FCALA_1", 
 "LArMonParams.LAr.LDPB.LArC_FCALA_1.PulseRates/RatesLatomes[1]": "LATOME_FCALA_2", 
 "LArMonParams.LAr.LDPB.LArC_FCALC_1.PulseRates/RatesLatomes[3]": "DISABLED", 
 "LArMonParams.LAr.LDPB.LArC_FCALC_1.PulseRates/RatesLatomes[0]": "LATOME_FCALC_1", 
 "LArMonParams.LAr.LDPB.LArC_FCALC_1.PulseRates/RatesLatomes[1]": "LATOME_FCALC_2"}